^C:\USERS\EYLEEUHS\DOWNLOADS\GOOGLEEARTHPLUGINWINDOWSFORMS\GOOGLEEARTHPLUGINWINDOWSFORMS\FORM1.RESX|C:\USERS\EYLEEUHS\DOWNLOADS\GOOGLEEARTHPLUGINWINDOWSFORMS\GOOGLEEARTHPLUGINWINDOWSFORMS\PROPERTIES\RESOURCES.RESX
C:\USERS\EYLEEUHS\DOWNLOADS\GOOGLEEARTHPLUGINWINDOWSFORMS\GOOGLEEARTHPLUGINWINDOWSFORMS\OBJ\DEBUG\GOOGLEEARTHPLUGINWINDOWSFORMS.FORM1.RESOURCES
C:\USERS\EYLEEUHS\DOWNLOADS\GOOGLEEARTHPLUGINWINDOWSFORMS\GOOGLEEARTHPLUGINWINDOWSFORMS\OBJ\DEBUG\GOOGLEEARTHPLUGINWINDOWSFORMS.PROPERTIES.RESOURCES.RESOURCES
^C:\GOOGLEEARTHTEST\GOOGLEEARTHPLUGINWINDOWSFORMS\FORM1.RESX|C:\GOOGLEEARTHTEST\GOOGLEEARTHPLUGINWINDOWSFORMS\PROPERTIES\RESOURCES.RESX
C:\GOOGLEEARTHTEST\GOOGLEEARTHPLUGINWINDOWSFORMS\OBJ\DEBUG\GOOGLEEARTHPLUGINWINDOWSFORMS.FORM1.RESOURCES
C:\GOOGLEEARTHTEST\GOOGLEEARTHPLUGINWINDOWSFORMS\OBJ\DEBUG\GOOGLEEARTHPLUGINWINDOWSFORMS.PROPERTIES.RESOURCES.RESOURCES
^C:\GOOGLEEARTHTEST\GOOGLEEARTHPLUGINWINDOWSFORMS\FORM1.RESX
C:\GOOGLEEARTHTEST\GOOGLEEARTHPLUGINWINDOWSFORMS\OBJ\DEBUG\GOOGLEEARTHPLUGINWINDOWSFORMS.FORM1.RESOURCES
^C:\SENIORPROJECT\GOOGLEEARTHPLUGINWINDOWSFORMS\GOOGLEEARTHPLUGINWINDOWSFORMS\FORM1.RESX|C:\SENIORPROJECT\GOOGLEEARTHPLUGINWINDOWSFORMS\GOOGLEEARTHPLUGINWINDOWSFORMS\PLEASEWAITFORM.RESX|C:\SENIORPROJECT\GOOGLEEARTHPLUGINWINDOWSFORMS\GOOGLEEARTHPLUGINWINDOWSFORMS\PROPERTIES\RESOURCES.RESX
C:\SENIORPROJECT\GOOGLEEARTHPLUGINWINDOWSFORMS\GOOGLEEARTHPLUGINWINDOWSFORMS\OBJ\DEBUG\GOOGLEEARTHPLUGINWINDOWSFORMS.FORM1.RESOURCES
C:\SENIORPROJECT\GOOGLEEARTHPLUGINWINDOWSFORMS\GOOGLEEARTHPLUGINWINDOWSFORMS\OBJ\DEBUG\GOOGLEEARTHPLUGINWINDOWSFORMS.PLEASEWAITFORM.RESOURCES
C:\SENIORPROJECT\GOOGLEEARTHPLUGINWINDOWSFORMS\GOOGLEEARTHPLUGINWINDOWSFORMS\OBJ\DEBUG\GOOGLEEARTHPLUGINWINDOWSFORMS.PROPERTIES.RESOURCES.RESOURCES
